,2 FlexibilityCapacity.NO_FLEXBILITY,8 FlexibilityCapacity.NO_FLEXBILITY,16 FlexibilityCapacity.NO_FLEXBILITY,0 FlexibilityCapacity.NO_FLEXBILITY
cm neeg,1.2647660696529783e-12,6.394884621840902e-13,0.0,0.0
average exp load per day,0.17714992902217563,0.17714992902217563,0.17714992902217563,0.17714992902217563
avg est dissatisfaction,0.0,0.0,0.0,0.0
avg sim dissatisfaction,0.0,0.0,0.0,0.0
favourite hour,8.0,9.0,10.0,7.0
favourite duration,8.0,8.0,8.0,8.0
